Example 8.1.1 from Experimental Design & Analysis for Tree Improvement — Exam8.1.1 • eda4treeR
…
 # Pg. 161
  RCB1  <- aov(Dbh~Province+Replication,data = DataExam8.1)
  RCB   <-
          emmeans(RCB1, specs = "Province") %>%
          as_tibble()
  Mixed <-
          emmeans(fm8.8, specs = "Province") %>%
          as_tibble()

  table8.9 <- left_join(RCB, Mixed, by = "Province", suffix = c(".RCBD", ".Mixed"))
  print(table8.9)
#> # A tibble: 59 × 11
#>    Province emmean.RCBD SE.RCBD df.RCBD lower.CL.RCBD upper.CL.RCBD emmean.Mixed
#>    <fct>          <dbl>   <dbl>   <dbl>         <dbl>         <dbl>        <dbl>
#>  1 1               1.85   0.382     174          1.10          2.60         2.44
#>  2 2               3.24   0.382     174          2.49          3.99         3.15
#>  3 3               2.94   0.382     174          2.18          3.69         2.87
#>  4 4               2.50   0.382     174          1.74          3.25         2.27
#>  5 5               3.34   0.382     174          2.59          4.10         3.74
#>  6 6               3.37   0.382     174          2.62          4.13         3.54
#>  7 7               3.98   0.382     174          3.23          4.74         3.93
#>  8 8               2.64   0.382     174          1.88          3.39         2.72
#>  9 10              2.47   0.382     174          1.71          3.22         2.68
#> 10 11              2.40   0.382     174          1.64          3.15         2.04
#> # ℹ 49 more rows
#> # ℹ 4 more variables: SE.Mixed <dbl>, df.Mixed <dbl>, lower.CL.Mixed <dbl>,
#> #   upper.CL.Mixed <dbl>
…
