Example 8.1 from Experimental Design & Analysis for Tree Improvement — Exam8.1 • eda4treeR
…
DataExam8.1 %>%
dplyr::group_by(Country,Province)%>%
dplyr::summarize(Mean=mean(Dbh))
#> `summarise()` regrouping output by 'Country' (override with `.groups` argument)
#> # A tibble: 59 x 3
#> # Groups:   Country [18]
#>    Country   Province  Mean
#>    <fct>     <fct>    <dbl>
#>  1 Australia 1         1.85
#>  2 Australia 2         3.24
#>  3 Australia 3         2.94
#>  4 Australia 4         2.50
#>  5 Benin     5         3.34
#>  6 China     6         3.38
#>  7 China     7         3.98
#>  8 China     63        3.7 
#>  9 Egypt     8         2.64
#> 10 Egypt     10        2.46
#> # … with 49 more rows
…
