Example 5.1 from Experimental Design & Analysis for Tree Improvement — Exam5.1 • eda4treeR
…
   DataExam5.1 %>%
     dplyr::group_by(Site) %>%
     dplyr::summarize(Mean=mean(Ht))
#> # A tibble: 4 x 2
#>   Site       Mean
#>   <fct>     <dbl>
#> 1 Rathaburi  462.
#> 2 Sai Thong  628.
#> 3 Si Sa Ket  494.
#> 4 Sakaerat   370.

   DataExam5.1 %>%
     dplyr::group_by(SeedLot) %>%
     dplyr::summarize(Mean=mean(Ht))
#> # A tibble: 27 x 2
#>    SeedLot  Mean
#>    <fct>   <dbl>
#>  1 13877    365.
#>  2 13866    353.
#>  3 13689    559.
#>  4 13688    546.
#>  5 13861    627.
#>  6 13854    628 
#>  7 13684    660 
#>  8 13864    422.
#>  9 13863    586.
#> 10 13683    770.
#> # ... with 17 more rows
…
