Example 4.3 from Experimental Design & Analysis for Tree Improvement — Exam4.3 • eda4treeR
…
#>  2 Control    18212  1.33
#>  3 Control    18217  6.67
#>  4 Control    18248  2.67
#>  5 Control    18249  0   
#>  6 Control    18265 28   
#>  7 Treated    18211 77.3 
#>  8 Treated    18212 69.3 
#>  9 Treated    18217 57.3 
#> 10 Treated    18248 53.3 
#> 11 Treated    18249 55.6 
#> 12 Treated    18265 79.1 
 DataExam4.3 %>%
   dplyr::group_by(Pretreatment,Contcomp,SeedLot) %>%
   dplyr::summarize(Mean=mean(Percent))
#> # A tibble: 24 x 4
#> # Groups:   Pretreatment, Contcomp [?]
#>    Pretreatment Contcomp SeedLot  Mean
#>    <fct>        <fct>      <int> <dbl>
#>  1 B1M          Treated    18211  88  
#>  2 B1M          Treated    18212  85.3
#>  3 B1M          Treated    18217  77.3
#>  4 B1M          Treated    18248  68  
#>  5 B1M          Treated    18249  56  
#>  6 B1M          Treated    18265  82.7
#>  7 BWS          Treated    18211  78.7
#>  8 BWS          Treated    18212  68  
#>  9 BWS          Treated    18217  54.7
#> 10 BWS          Treated    18248  52  
#> # ... with 14 more rows
…
#> 2 BWS          65.8 
#> 3 Control       6.44
#> 4 Nick         54   
     DataExam4.3%>%group_by(SeedLot)%>%summarize(Mean=mean(Percent))
#> # A tibble: 6 x 2
#>   SeedLot  Mean
#>     <int> <dbl>
#> 1   18211  58  
#> 2   18212  52.3
#> 3   18217  44.7
#> 4   18248  40.7
#> 5   18249  41.7
#> 6   18265  66.3
     DataExam4.3%>%group_by(Pretreatment,SeedLot)%>%summarize(Mean=mean(Percent))
#> # A tibble: 24 x 3
#> # Groups:   Pretreatment [?]
#>    Pretreatment SeedLot  Mean
#>    <fct>          <int> <dbl>
#>  1 B1M            18211  88  
#>  2 B1M            18212  85.3
#>  3 B1M            18217  77.3
#>  4 B1M            18248  68  
#>  5 B1M            18249  56  
#>  6 B1M            18265  82.7
#>  7 BWS            18211  78.7
#>  8 BWS            18212  68  
#>  9 BWS            18217  54.7
#> 10 BWS            18248  52  
#> # ... with 14 more rows
…
