Example 4.3.1 from Experimental Design & Analysis for Tree Improvement — Exam4.3.1 • eda4treeR
…
 DataExam4.3.1 %>%
     dplyr::group_by(Pretreatment,SeedLot) %>%
     dplyr::summarize(Mean=mean(Percent))
#> # A tibble: 24 x 3
#> # Groups:   Pretreatment [?]
#>    Pretreatment SeedLot  Mean
#>    <fct>        <fct>   <dbl>
#>  1 Control      18265   28.0 
#>  2 Control      18249    0.  
#>  3 Control      18248    2.67
#>  4 Control      18211    0.  
#>  5 Control      18212    1.33
#>  6 Control      18217    6.67
#>  7 Nick         18265   74.7 
#>  8 Nick         18249   49.3 
#>  9 Nick         18248   40.0 
#> 10 Nick         18211   65.3 
#> # ... with 14 more rows
…
